{
    "homepage": "http://www.groovy-lang.org/",
    "version": "2.4.13",
    "license": "Apache 2.0",
    "url": "https://dl.bintray.com/groovy/maven/apache-groovy-binary-2.4.13.zip",
    "hash": "b9e4ad752affe37867a28e186dccddc8b541ea82ad3d86e4172a0fd9084c146f",
    "extract_dir": "groovy-2.4.13",
    "bin": [
        "bin\\grape.bat",
        "bin\\groovy.bat",
        "bin\\groovyc.bat",
        "bin\\groovyConsole.bat",
        "bin\\groovydoc.bat",
        "bin\\groovysh.bat",
        "bin\\java2groovy.bat",
        "bin\\startGroovy.bat"
    ],
    "env_set": {
        "GROOVY_HOME": "$dir"
    },
    "suggest": {
        "JDK": [
            "extras/oraclejdk",
            "openjdk"
        ]
    },
    "checkver": {
        "url": "http://www.groovy-lang.org/download.html",
        "re": "apache-groovy-binary-([\\d.]+).zip"
    },
    "autoupdate": {
        "url": "https://dl.bintray.com/groovy/maven/apache-groovy-binary-$version.zip",
        "extract_dir": "groovy-$version",
        "hash": {
            "url": "$url.sha256"
        }
    }
}
