{
    "homepage": "https://www.scala-lang.org/",
    "version": "2.12.4",
    "license": "BSD 3-Clause",
    "url": "https://downloads.typesafe.com/scala/2.12.4/scala-2.12.4.zip",
    "hash": "7ef1b50764971721d4f7e2d8755b95798104b44582068990f510469cee6c02a2",
    "extract_dir": "scala-2.12.4",
    "bin": [
        "bin\\fsc.bat",
        "bin\\scala.bat",
        "bin\\scalac.bat",
        "bin\\scaladoc.bat",
        "bin\\scalap.bat"
    ],
    "env_set": {
        "SCALA_HOME": "$dir"
    },
    "suggest": {
        "JDK": [
            "extras/oraclejdk",
            "openjdk"
        ]
    },
    "checkver": {
        "url": "https://www.scala-lang.org/download/",
        "re": "scala-([\\d.]+).zip"
    },
    "autoupdate": {
        "url": "https://downloads.typesafe.com/scala/$version/scala-$version.zip",
        "extract_dir": "scala-$version"
    }
}
