{
    "homepage": "http://www.straightrunning.com/XmingNotes/",
    "version": "6.9.0.31",
    "description": "Run X GUI applications on bash subsystem or linux VM, and have them rendered on Windows Desktop. http://www.pcworld.com/article/3055403/windows/windows-10s-bash-shell-can-run-graphical-linux-applications-with-this-trick.html",
    "url": "https://downloads.sourceforge.net/project/xming/Xming-mesa/6.9.0.31/Xming-mesa-6-9-0-31-setup.exe?r=scoop",
    "hash": "md5:E580DEBBF6110CFC4D8FCD20BEB541C1",
    "innosetup": true,
    "bin": [
        "XLaunch.exe"
    ]
}
